<?xml version="1.0" encoding="UTF-8" standalone="no"?>
<!-- Created with Inkscape (http://www.inkscape.org/) -->

<svg
   xmlns:dc="http://purl.org/dc/elements/1.1/"
   xmlns:cc="http://creativecommons.org/ns#"
   xmlns:rdf="http://www.w3.org/1999/02/22-rdf-syntax-ns#"
   xmlns:svg="http://www.w3.org/2000/svg"
   xmlns="http://www.w3.org/2000/svg"
   xmlns:sodipodi="http://sodipodi.sourceforge.net/DTD/sodipodi-0.dtd"
   xmlns:inkscape="http://www.inkscape.org/namespaces/inkscape"
   width="192"
   height="192"
   viewBox="0 0 50.8 50.800001"
   version="1.1"
   id="svg8"
   inkscape:version="0.92.4 5da689c313, 2019-01-14"
   sodipodi:docname="favicon.svg"
   inkscape:export-filename="/home/apol/lastest/linuxappsummit/web/favicon.ico.png"
   inkscape:export-xdpi="96"
   inkscape:export-ydpi="96">
  <defs
     id="defs2" />
  <sodipodi:namedview
     id="base"
     pagecolor="#ffffff"
     bordercolor="#666666"
     borderopacity="1.0"
     inkscape:pageopacity="0"
     inkscape:pageshadow="2"
     inkscape:zoom="2.8"
     inkscape:cx="167.57792"
     inkscape:cy="60.767007"
     inkscape:document-units="px"
     inkscape:current-layer="layer1"
     showgrid="false"
     inkscape:pagecheckerboard="false"
     units="px"
     inkscape:snap-page="true"
     inkscape:snap-bbox="true"
     inkscape:snap-bbox-midpoints="true"
     inkscape:window-width="1920"
     inkscape:window-height="1016"
     inkscape:window-x="0"
     inkscape:window-y="0"
     inkscape:window-maximized="1"
     showborder="true" />
  <metadata
     id="metadata5">
    <rdf:RDF>
      <cc:Work
         rdf:about="">
        <dc:format>image/svg+xml</dc:format>
        <dc:type
           rdf:resource="http://purl.org/dc/dcmitype/StillImage" />
        <dc:title></dc:title>
      </cc:Work>
    </rdf:RDF>
  </metadata>
  <g
     inkscape:label="Layer 1"
     inkscape:groupmode="layer"
     id="layer1"
     transform="translate(0,-246.19999)">
    <g
       aria-label="LAS"
       style="font-style:normal;font-variant:normal;font-weight:bold;font-stretch:normal;font-size:42.44455719px;line-height:1.25;font-family:'B612 Mono';-inkscape-font-specification:'B612 Mono Bold';letter-spacing:0px;word-spacing:0px;fill:#121b86;fill-opacity:1;stroke:none;stroke-width:1.06111395"
       id="text817"
       transform="matrix(0.63217889,0,0,0.63217889,0.21173993,96.098547)">
      <path
         style="font-style:normal;font-variant:normal;font-weight:900;font-stretch:normal;font-family:Kanit;-inkscape-font-specification:'Kanit Heavy';fill:#121b86;fill-opacity:1;stroke-width:4.01050949"
         d="m 253.69922,23.46875 c -15.18646,0 -26.57669,2.674133 -34.16992,8.021484 -7.48629,5.240391 -11.23047,13.314058 -11.23047,24.222657 0,5.989014 0.80205,10.909661 2.40625,14.759765 1.71115,3.850079 4.4385,7.164689 8.18164,9.945313 3.74314,2.780623 9.03821,5.454757 15.88281,8.021484 0.64168,0.213896 3.31387,1.12238 8.01953,2.726563 4.06399,1.390311 6.84454,2.513556 8.3418,3.36914 1.49726,0.748624 2.24609,1.765452 2.24609,3.048828 0,1.497248 -0.90846,2.673716 -2.72656,3.529296 -1.8181,0.74862 -4.33066,1.12305 -7.53906,1.12305 -4.91956,0 -10.53584,-0.80204 -16.84571,-2.406252 -6.20292,-1.604208 -11.87045,-3.637889 -17.0039,-6.097656 v 29.037108 c 4.49177,2.2459 10.10609,4.00962 16.84375,5.29297 6.73765,1.28338 13.79644,1.92578 21.17578,1.92578 14.97257,0 26.3628,-2.88696 34.16992,-8.66211 7.91407,-5.88208 11.8711,-13.84933 11.8711,-23.902342 0,-6.309871 -0.80205,-11.551746 -2.40625,-15.722656 -1.49726,-4.277896 -4.4394,-8.020125 -8.82422,-11.228516 -4.27788,-3.315351 -10.53267,-6.095901 -18.76758,-8.341797 l -4.17188,-1.123047 c -4.49177,-1.283376 -7.48516,-2.247008 -8.98242,-2.888671 -1.49726,-0.748649 -2.24609,-1.657108 -2.24609,-2.726563 0,-2.673688 4.11665,-4.009766 12.35156,-4.009766 8.12797,0 17.27169,2.084924 27.43164,6.25586 V 28.441406 c -4.38482,-1.283351 -9.89273,-2.404668 -16.52344,-3.367187 -6.6307,-1.069481 -12.45786,-1.605469 -17.48437,-1.605469 z M 7.8574219,25.074219 V 128.38477 H 88.869141 V 98.867188 H 46.679688 V 25.074219 Z m 121.9453081,0 -39.783199,103.310551 h 40.425779 l 7.37891,-19.25196 h 24.22266 l 7.38085,19.25196 h 40.42579 L 170.06836,25.074219 Z m 20.05274,37.857422 7.86133,19.732421 h -15.72266 z"
         transform="matrix(0.26458334,0,0,0.26458334,0,257.31249)"
         id="path4541"
         inkscape:connector-curvature="0" />
    </g>
  </g>
</svg>
